{
  "formatVersion": 1,
  "database": {
    "version": 1,
    "identityHash": "0e791b621381fb2ef371105ff16a6034",
    "entities": [
      {
        "tableName": "products",
        "createSql": "CREATE TABLE IF NOT EXISTS `${TABLE_NAME}` (`id` INTEGER NOT NULL, `name` TEXT, `image_url` TEXT, `ingredients_text` TEXT, `energy` TEXT, `last_seen` INTEGER NOT NULL, PRIMARY KEY(`id`))",
        "fields": [
          {
            "fieldPath": "id",
            "columnName": "id",
            "affinity": "INTEGER",
            "notNull": true
          },
          {
            "fieldPath": "name",
            "columnName": "name",
            "affinity": "TEXT",
            "notNull": false
          },
          {
            "fieldPath": "imageUrl",
            "columnName": "image_url",
            "affinity": "TEXT",
            "notNull": false
          },
          {
            "fieldPath": "ingredientsText",
            "columnName": "ingredients_text",
            "affinity": "TEXT",
            "notNull": false
          },
          {
            "fieldPath": "energy",
            "columnName": "energy",
            "affinity": "TEXT",
            "notNull": false
          },
          {
            "fieldPath": "lastSeen",
            "columnName": "last_seen",
            "affinity": "INTEGER",
            "notNull": true
          }
        ],
        "primaryKey": {
          "columnNames": [
            "id"
          ],
          "autoGenerate": false
        },
        "indices": [],
        "foreignKeys": []
      }
    ],
    "setupQueries": [
      "CREATE TABLE IF NOT EXISTS room_master_table (id INTEGER PRIMARY KEY,identity_hash TEXT)",
      "INSERT OR REPLACE INTO room_master_table (id,identity_hash) VALUES(42, \"0e791b621381fb2ef371105ff16a6034\")"
    ]
  }
}